Melbourne Pedestrian Sensor Data
…
]

---

.left-column[
  ## Pedestrian Sensors
  ## Pedestrian Counts
]

.right-column[
* The data structure

```
## # A tibble: 28,266 × 10
##     Date_Time  Year    Month Mdate    Day  Time Sensor_ID
##        <dttm> <int>    <chr> <int>  <chr> <int>     <int>
## 1  2016-02-01  2016 February     1 Monday     0        39
## 2  2016-02-01  2016 February     1 Monday     0        16
## 3  2016-02-01  2016 February     1 Monday     0         7
## 4  2016-02-01  2016 February     1 Monday     0         1
## 5  2016-02-01  2016 February     1 Monday     0         2
## 6  2016-02-01  2016 February     1 Monday     0        21
## 7  2016-02-01  2016 February     1 Monday     0        20
## 8  2016-02-01  2016 February     1 Monday     0        19
## 9  2016-02-01  2016 February     1 Monday     0        32
## 10 2016-02-01  2016 February     1 Monday     0        18
## # ... with 28,256 more rows, and 3 more variables: Sensor_Name <chr>,
## #   Hourly_Counts <int>, Date <date>
```
…
